name: 'Violence Reports'
description: ''
endpoints:
  -
    httpMethods:
      - GET
    uri: api/violence-types
    metadata:
      groupName: 'Violence Reports'
      groupDescription: ''
      subgroup: ''
      subgroupDescription: ''
      title: 'Fetch violence report types'
      description: 'This endpoint returns an array of objects containing all violence report types in storage.'
      authenticated: false
      custom: []
    headers:
      Content-Type: application/json
      Accept: application/json
    urlParameters: []
    cleanUrlParameters: []
    queryParameters: []
    cleanQueryParameters: []
    bodyParameters: []
    cleanBodyParameters: []
    fileParameters: []
    responses:
      -
        status: 200
        content: '{"status":"success","data":{"types":[{"id":1,"name":"attempted murder","note":null,"created_at":"2023-02-08T15:04:48.000000Z","updated_at":"2023-02-08T15:04:48.000000Z"},{"id":2,"name":"gun shots","note":null,"created_at":"2023-02-08T15:04:48.000000Z","updated_at":"2023-02-08T15:04:48.000000Z"},{"id":3,"name":"murder","note":null,"created_at":"2023-02-08T15:04:48.000000Z","updated_at":"2023-02-08T15:04:48.000000Z"},{"id":4,"name":"intimidation","note":null,"created_at":"2023-02-08T15:04:48.000000Z","updated_at":"2023-02-08T15:04:48.000000Z"},{"id":5,"name":"physical harm","note":null,"created_at":"2023-02-08T15:04:48.000000Z","updated_at":"2023-02-08T15:04:48.000000Z"},{"id":6,"name":"ballot box snatching","note":null,"created_at":"2023-02-08T15:04:48.000000Z","updated_at":"2023-02-08T15:04:48.000000Z"},{"id":7,"name":"physical threat","note":null,"created_at":"2023-02-08T15:04:48.000000Z","updated_at":"2023-02-08T15:04:48.000000Z"},{"id":8,"name":"group clash","note":null,"created_at":"2023-02-08T15:04:48.000000Z","updated_at":"2023-02-08T15:04:48.000000Z"},{"id":9,"name":"sexual violence","note":null,"created_at":"2023-02-08T15:04:48.000000Z","updated_at":"2023-02-08T15:04:48.000000Z"},{"id":10,"name":"other","note":null,"created_at":"2023-02-08T15:04:48.000000Z","updated_at":"2023-02-08T15:04:48.000000Z"}]}}'
        headers:
          cache-control: 'no-cache, private'
          content-type: application/json
          x-ratelimit-limit: '60'
          x-ratelimit-remaining: '59'
          access-control-allow-origin: '*'
        description: null
        custom: []
    responseFields: []
    auth: []
    controller: null
    method: null
    route: null
    custom: []
  -
    httpMethods:
      - GET
    uri: api/violence-reports/data
    metadata:
      groupName: 'Violence Reports'
      groupDescription: ''
      subgroup: ''
      subgroupDescription: ''
      title: 'Fetch Report Data'
      description: 'It returns data for a specified location. Your search term will be searched against the name fied of the following objects `ng_states`, `ng_local_governments`, `ng_wards`, `ng_polling_units`. Data will be returned if `violence_reports` are found for a location that matches your search term'
      authenticated: false
      custom: []
    headers:
      Content-Type: application/json
      Accept: application/json
    urlParameters: []
    cleanUrlParameters: []
    queryParameters: []
    cleanQueryParameters: []
    bodyParameters:
      q:
        name: q
        description: ''
        required: true
        example: facere
        type: string
        custom: []
      start:
        name: start
        description: 'Must be a valid date in the format <code>Y-m-d</code>.'
        required: false
        example: '2023-02-11'
        type: string
        custom: []
      end:
        name: end
        description: 'Must be a valid date in the format <code>Y-m-d</code>.'
        required: false
        example: '2023-02-11'
        type: string
        custom: []
    cleanBodyParameters:
      q: facere
      start: '2023-02-11'
      end: '2023-02-11'
    fileParameters: []
    responses:
      -
        status: 200
        content: '{"status":"success","data":{"state_results":[{"meta_data":{"violence_reports":{"count":0},"local_governments":{"count":0},"types":{"types":[],"count":0}}}],"local_government_results":[{"meta_data":{"violence_reports":{"count":0},"local_governments":{"count":0},"types":{"types":[],"count":0}}}],"ward_results":[{"meta_data":{"violence_reports":{"count":0},"local_governments":{"count":0},"types":{"types":[],"count":0}}}],"polling_unit_results":[{"meta_data":{"violence_reports":{"count":0},"polling_units":{"count":0},"local_governments":{"count":0},"types":{"types":[],"count":0}}}]}}'
        headers:
          cache-control: 'no-cache, private'
          content-type: application/json
          x-ratelimit-limit: '60'
          x-ratelimit-remaining: '52'
          access-control-allow-origin: '*'
        description: null
        custom: []
    responseFields: []
    auth: []
    controller: null
    method: null
    route: null
    custom: []
  -
    httpMethods:
      - GET
    uri: api/violence-reports
    metadata:
      groupName: 'Violence Reports'
      groupDescription: ''
      subgroup: ''
      subgroupDescription: ''
      title: 'Get violence reports'
      description: 'Returns violence reports from storage ordered by `created_at` `desc`. By default this endpoint returns 100 reports. You can increase this by adding a (int)`limit` query parameter'
      authenticated: false
      custom: []
    headers:
      Content-Type: application/json
      Accept: application/json
    urlParameters: []
    cleanUrlParameters: []
    queryParameters:
      limit:
        name: limit
        description: 'an integer'
        required: false
        example: doloremque
        type: string
        custom: []
    cleanQueryParameters:
      limit: doloremque
    bodyParameters:
      limit:
        name: limit
        description: ''
        required: false
        example: 1
        type: integer
        custom: []
    cleanBodyParameters:
      limit: 1
    fileParameters: []
    responses:
      -
        status: 200
        content: '{"status":"success","data":{"violence_reports":{"current_page":1,"data":[{"id":22,"ng_state_id":null,"ng_local_government_id":null,"ng_polling_unit_id":45800,"type_id":9,"title":null,"description":"Perspiciatis doloremque odit, voluptate modi in ipsum natus quis adipisci nihil quam dolorum ea sunt hic exercitationem? Fuga tempora ipsam modi, quia vel quaerat temporibus exercitationem atque quidem, aperiam incidunt.","file":null,"ip_address":"127.0.0.1","user_agent":"PostmanRuntime\/7.30.1","longitude":null,"latitude":null,"created_at":"2023-02-11T19:36:46.000000Z","updated_at":"2023-02-11T19:36:46.000000Z","deleted_at":null,"polling_unit":{"id":45800,"data_id":45800,"name":"OBEAGU ABOFIA HALL","registration_area_id":2473,"precise_location":null,"abbreviation":"001","units":"001","delimitation":"11\/04\/02\/001","remark":"EXISTING PU","ward_id":2473,"created_at":"2023-02-09T07:08:08.000000Z","updated_at":"2023-02-09T07:08:08.000000Z","location":{"id":45800,"ng_polling_unit_id":45800,"latitude":"6.3281443","longitude":"8.1041807","viewport":"{\"northeast\":{\"lat\":6.329588579892722,\"lng\":8.105531079892723},\"southwest\":{\"lat\":6.326888920107278,\"lng\":8.102831420107279}}","formatted_address":"1 Onwe Rd, Ntezi Abba 480108, Abakaliki, Nigeria","google_map_url":"https:\/\/maps.google.com?q=6.3281443,8.104180699999999","google_place_id":"ChIJUf_5LWmgXBARKBfJ1BxFVp8","created_at":"2023-02-09T07:08:08.000000Z","updated_at":"2023-02-09T07:08:08.000000Z"}},"type":{"id":9,"name":"sexual violence","note":null,"created_at":"2023-02-08T15:04:48.000000Z","updated_at":"2023-02-08T15:04:48.000000Z"}}],"first_page_url":"http:\/\/localhost\/api\/violence-reports?page=1","from":1,"last_page":22,"last_page_url":"http:\/\/localhost\/api\/violence-reports?page=22","links":[{"url":null,"label":"&laquo; Previous","active":false},{"url":"http:\/\/localhost\/api\/violence-reports?page=1","label":"1","active":true},{"url":"http:\/\/localhost\/api\/violence-reports?page=2","label":"2","active":false},{"url":"http:\/\/localhost\/api\/violence-reports?page=3","label":"3","active":false},{"url":"http:\/\/localhost\/api\/violence-reports?page=4","label":"4","active":false},{"url":"http:\/\/localhost\/api\/violence-reports?page=5","label":"5","active":false},{"url":"http:\/\/localhost\/api\/violence-reports?page=6","label":"6","active":false},{"url":"http:\/\/localhost\/api\/violence-reports?page=7","label":"7","active":false},{"url":"http:\/\/localhost\/api\/violence-reports?page=8","label":"8","active":false},{"url":"http:\/\/localhost\/api\/violence-reports?page=9","label":"9","active":false},{"url":"http:\/\/localhost\/api\/violence-reports?page=10","label":"10","active":false},{"url":null,"label":"...","active":false},{"url":"http:\/\/localhost\/api\/violence-reports?page=21","label":"21","active":false},{"url":"http:\/\/localhost\/api\/violence-reports?page=22","label":"22","active":false},{"url":"http:\/\/localhost\/api\/violence-reports?page=2","label":"Next &raquo;","active":false}],"next_page_url":"http:\/\/localhost\/api\/violence-reports?page=2","path":"http:\/\/localhost\/api\/violence-reports","per_page":1,"prev_page_url":null,"to":1,"total":22}}}'
        headers:
          cache-control: 'no-cache, private'
          content-type: application/json
          x-ratelimit-limit: '60'
          x-ratelimit-remaining: '51'
          access-control-allow-origin: '*'
        description: null
        custom: []
    responseFields: []
    auth: []
    controller: null
    method: null
    route: null
    custom: []
  -
    httpMethods:
      - POST
    uri: api/violence-reports
    metadata:
      groupName: 'Violence Reports'
      groupDescription: ''
      subgroup: ''
      subgroupDescription: ''
      title: 'Create a violence report'
      description: 'This endpoint creates a new violence report with the inputs passed and returns an object of the newly created  violence report.'
      authenticated: false
      custom: []
    headers:
      Content-Type: multipart/form-data
      Accept: application/json
    urlParameters: []
    cleanUrlParameters: []
    queryParameters: []
    cleanQueryParameters: []
    bodyParameters:
      ng_state_id:
        name: ng_state_id
        description: '`ng_states.data_id`'
        required: false
        example: 16
        type: integer
        custom: []
      ng_local_government_id:
        name: ng_local_government_id
        description: '`ng_local_governments.data_id`'
        required: false
        example: 5
        type: integer
        custom: []
      ng_polling_unit_id:
        name: ng_polling_unit_id
        description: '`ng_polling_units.data_id`'
        required: true
        example: 5
        type: integer
        custom: []
      type_id:
        name: type_id
        description: ''
        required: true
        example: 19
        type: integer
        custom: []
      title:
        name: title
        description: ''
        required: false
        example: et
        type: string
        custom: []
      description:
        name: description
        description: 'The `description` property is required if no file is attached'
        required: false
        example: 'Eum aliquid dolores aut dolorum aperiam assumenda dolorem.'
        type: string
        custom: []
      file:
        name: file
        description: 'The `file` property is required if there''s no description'
        required: false
        example: null
        type: file
        custom: []
      longitude:
        name: longitude
        description: ''
        required: false
        example: 61070.0421
        type: number
        custom: []
      latitude:
        name: latitude
        description: ''
        required: false
        example: 190.1607
        type: number
        custom: []
    cleanBodyParameters:
      ng_state_id: 16
      ng_local_government_id: 5
      ng_polling_unit_id: 5
      type_id: 19
      title: et
      description: 'Eum aliquid dolores aut dolorum aperiam assumenda dolorem.'
      longitude: 61070.0421
      latitude: 190.1607
    fileParameters:
      file: null
    responses: []
    responseFields: []
    auth: []
    controller: null
    method: null
    route: null
    custom: []
  -
    httpMethods:
      - GET
    uri: 'api/violence-reports/{id}'
    metadata:
      groupName: 'Violence Reports'
      groupDescription: ''
      subgroup: ''
      subgroupDescription: ''
      title: 'Fetch a report By ID'
      description: 'This endpoint returns a single report identified by `violence_reports.id`'
      authenticated: false
      custom: []
    headers:
      Content-Type: application/json
      Accept: application/json
    urlParameters:
      id:
        name: id
        description: 'The ID of the violence report.'
        required: true
        example: 1
        type: integer
        custom: []
    cleanUrlParameters:
      id: 1
    queryParameters: []
    cleanQueryParameters: []
    bodyParameters: []
    cleanBodyParameters: []
    fileParameters: []
    responses:
      -
        status: 200
        content: '{"status":"success","data":{"violence_report":{"id":1,"ng_state_id":null,"ng_local_government_id":null,"ng_polling_unit_id":17232,"type_id":1,"title":null,"description":"Lorem","file":null,"ip_address":null,"user_agent":null,"longitude":null,"latitude":null,"created_at":"2023-02-09T12:47:27.000000Z","updated_at":"2023-02-09T12:47:27.000000Z","deleted_at":null,"polling_unit":{"id":17210,"data_id":17232,"name":"2\/3 AKPO STREET  I","registration_area_id":1000,"precise_location":null,"abbreviation":"001","units":"001","delimitation":"04\/18\/03\/001","remark":"EXISTING PU","ward_id":1000,"created_at":"2023-02-09T06:57:41.000000Z","updated_at":"2023-02-09T06:57:41.000000Z","location":{"id":17210,"ng_polling_unit_id":17232,"latitude":"6.1293859","longitude":"6.7855757","viewport":"{\"northeast\":{\"lat\":6.130538379892722,\"lng\":6.787053629892722},\"southwest\":{\"lat\":6.127838720107278,\"lng\":6.784353970107278}}","formatted_address":"4QHP+Q64, Bridgehead 431107, Onitsha, Nigeria","google_map_url":"https:\/\/maps.google.com?q=6.1293859,6.7855757","google_place_id":"ChIJ39rdyTuTQxARNjGs0TZIBkk","created_at":"2023-02-09T06:57:41.000000Z","updated_at":"2023-02-09T06:57:41.000000Z"}},"type":{"id":1,"name":"attempted murder","note":null,"created_at":"2023-02-08T15:04:48.000000Z","updated_at":"2023-02-08T15:04:48.000000Z"}}}}'
        headers:
          cache-control: 'no-cache, private'
          content-type: application/json
          x-ratelimit-limit: '60'
          x-ratelimit-remaining: '50'
          access-control-allow-origin: '*'
        description: null
        custom: []
    responseFields: []
    auth: []
    controller: null
    method: null
    route: null
    custom: []
